src/waveform.vcd
$date
	Fri Mar 22 14:12:47 2024
$end
$version
	Icarus Verilog
$end
$timescale
	1ps
$end
$scope module fetch_stage_tb $end
$var wire 32 ! pc [31:0] $end
$var reg 1 " PCSrc $end
$var reg 1 # PCWrite $end
$var reg 1 $ clk $end
$var reg 32 % pc_branch [31:0] $end
$var reg 1 & rst $end
$scope module uut $end
$var wire 1 " PCSrc $end
$var wire 1 # PCWrite $end
$var wire 1 $ clk $end
$var wire 32 ' pc_branch [31:0] $end
$var wire 1 & rst $end
$var wire 32 ( uart_data [31:0] $end
$var reg 32 ) pc [31:0] $end
$var reg 32 * pc_next [31:0] $end
$scope begin Comb $end
$upscope $end
$scope begin Seq $end
$upscope $end
$upscope $end
$upscope $end
$enddefinitions $end
#0
$dumpvars
bx *
bx )
bz (
b10100 '
0&
b10100 %
1$
1#
0"
bx !
$end
#1
0$
#2
1$
#3
0$
#4
1$
#5
0$
#6
1$
#7
0$
#8
b100 *
b0 !
b0 )
1$
1&
#9
0$
#10
b1000 *
b100 !
b100 )
1$
0&
#11
0$
#12
b1100 *
b1000 !
b1000 )
1$
#13
0$
#14
b10000 *
b1100 !
b1100 )
1$
#15
0$
#16
b10100 *
b10000 !
b10000 )
1$
#17
0$
#18
b11000 *
b10100 !
b10100 )
1$
#19
0$
#20
b11100 *
b11000 !
b11000 )
1$
#21
0$
#22
b100000 *
b11100 !
b11100 )
1$
#23
0$
#24
b100100 *
b100000 !
b100000 )
1$
#25
0$
#26
b101000 *
b100100 !
b100100 )
1$
#27
0$
#28
b101100 *
b101000 !
b101000 )
1$
#29
0$
#30
b100 *
b0 !
b0 )
1$
1&
#31
0$
#32
b1000 *
b100 !
b100 )
1$
0&
#33
0$
#34
b1100 *
b1000 !
b1000 )
1$
#35
0$
#36
b10100 !
b10100 )
b10100 *
1$
1"
#37
0$
#38
1$
#39
0$
#40
b11000 !
b11000 )
b11100 *
1$
0"
#41
0$
#42
b100000 *
b11100 !
b11100 )
1$
#43
0$
#44
b100100 *
b100000 !
b100000 )
1$
#45
0$
#46
b101000 *
b100100 !
b100100 )
1$
#47
0$
#48
b101100 *
b101000 !
b101000 )
1$
#49
0$
#50
b110000 *
b101100 !
b101100 )
1$
#51
0$
#52
b110100 *
b110000 !
b110000 )
1$
#53
0$
#54
b111000 *
b110100 !
b110100 )
1$
#55
0$
#56
b111100 *
b111000 !
b111000 )
1$
#57
0$
#58
b1000000 *
b111100 !
b111100 )
1$
#59
0$
#60
1$
0#
