src/waveform.vcd
$date
	Fri Mar 29 11:58:56 2024
$end
$version
	Icarus Verilog
$end
$timescale
	1ps
$end
$scope module register_file_tb $end
$var wire 32 ! read2_data [31:0] $end
$var wire 32 " read1_data [31:0] $end
$var reg 1 # clk $end
$var reg 5 $ read1_id [4:0] $end
$var reg 5 % read2_id [4:0] $end
$var reg 1 & rst $end
$var reg 32 ' write_data [31:0] $end
$var reg 1 ( write_en $end
$var reg 5 ) write_id [4:0] $end
$scope module uut $end
$var wire 1 # clk $end
$var wire 5 * read1_id [4:0] $end
$var wire 5 + read2_id [4:0] $end
$var wire 1 & rst $end
$var wire 32 , write_data [31:0] $end
$var wire 1 ( write_en $end
$var wire 5 - write_id [4:0] $end
$var reg 32 . read1_data [31:0] $end
$var reg 32 / read2_data [31:0] $end
$scope begin Comb $end
$upscope $end
$scope begin Seq $end
$scope begin $ivl_for_loop0 $end
$var integer 32 0 i [31:0] $end
$upscope $end
$upscope $end
$upscope $end
$upscope $end
$enddefinitions $end
#0
$dumpvars
b0 0
b0 /
b0 .
b0 -
b0 ,
b0 +
b0 *
b0 )
0(
b0 '
0&
b0 %
b0 $
1#
b0 "
b0 !
$end
#1
0#
#2
1#
#3
0#
#4
1#
#5
0#
#6
1#
#7
0#
#8
b100000 0
1#
1&
#9
0#
#10
b10001 "
b10001 .
1#
b1 $
b1 *
b1 )
b1 -
b10001 '
b10001 ,
1(
0&
#11
0#
#12
1#
0(
#13
0#
#14
b101010 !
b101010 /
1#
b10 %
b10 +
b10 )
b10 -
b101010 '
b101010 ,
1(
#15
0#
#16
1#
0(
#17
0#
#18
1#
b110100100 '
b110100100 ,
b11 )
b11 -
1(
#19
0#
#20
1#
b101101000 '
b101101000 ,
b100 )
b100 -
#21
0#
#22
b101101000 !
b101101000 /
b110100100 "
b110100100 .
1#
b100 %
b100 +
b11 $
b11 *
0(
#23
0#
#24
1#
#25
0#
#26
1#
#27
0#
#28
1#
#29
0#
#30
b0 "
b0 .
1#
b0 $
b0 *
b1010011010 '
b1010011010 ,
b0 )
b0 -
1(
#31
0#
#32
b0 !
b0 /
1#
b0 %
b0 +
0(
